Brick,220
Glass,160
Dried Herbs,190
Rope,190
Salt,210
Basalt,170
Brass,260
Gunpowder,210
Silk,210
Talc Powder,130
Coffee,170
Paper,120
Porcelain,160
Tar,150
Wire,160
Coke,105
Fertilizer,95
Rubber,160
Textiles,100
Whale Oil,110
