Coffee,90
Paper,40
Porcelain,90
Tar,130
Wire,90
Coke,320
Fertilizer,160
Rubber,130
Textiles,300
Whale Oil,430
Asbestos,250
Explosives,330
Machine Parts,450
Gasoline,380
Tinplate,340
Convenience Food,350
Ferroconcrete,360
Flavorants,190
Luxury Materials,330
Packaging,280
