Coke,395
Fertilizer,470
Rubber,450
Textiles,370
Whale Oil,240
Asbestos,340
Explosives,390
Machine Parts,230
Gasoline,230
Tinplate,290
Convenience Food,440
Ferroconcrete,250
Flavorants,320
Luxury Materials,380
Packaging,300
Genome Data,200
Industrial Filters,290
Renewable Resources,300
Semiconductors,340
Steel,380
