Genome Data,450
Industrial Filters,360
Renewable Resources,450
Semiconductors,440
Steel,300
Bionics Data,1035
Electromagnets,840
Gas,915
Plastics,790
Robots,910
Nutrition Research,520
Papercrete,775
Preservatives,940
Smart Materials,880
Translucent Concrete,720
Algae,460
Biogeochemical Data,450
Nanoparticles,465
Purified Water,380
Superconductors,425
